{
    "text": "Lorem ipsum dolor sit amet, consectetur adipiscing elit. Ut vestibulum nisi in elementum aliquam. Ut pellentesque rhoncus nunc, quis tristique tellus tincidunt ac. Nunc non purus posuere, aliquam dui quis, volutpat arcu. Duis sed purus pharetra, rutrum sem in, vestibulum risus. Sed in ornare justo. Curabitur ac mi sapien. Vestibulum varius tempor felis ut vehicula."
}
