{

  "svg-arrorow-right": "../../assets/svg/font-awesome-sprites/solid.svg#arrow-right",
  "labels": [
    {
      "icon": "../../assets/svg/font-awesome-sprites/solid.svg#book",
      "title": "Digital",
      "svg-arrorow-right": "../../assets/svg/font-awesome-sprites/solid.svg#arrow-right"
    },
    {
      "icon": "../../assets/svg/font-awesome-sprites/solid.svg#user-edit",
      "title": "Software development & maintenance",
      "svg-arrorow-right": "../../assets/svg/font-awesome-sprites/solid.svg#arrow-right"
    },
    {
      "icon": "../../assets/svg/font-awesome-sprites/solid.svg#chalkboard-teacher",
      "title": "Cyber security",
      "svg-arrorow-right": "../../assets/svg/font-awesome-sprites/solid.svg#arrow-right"
    },
    {
      "icon": "../../assets/svg/font-awesome-sprites/solid.svg#address-card",
      "title": "Trainings",
      "svg-arrorow-right": "../../assets/svg/font-awesome-sprites/solid.svg#arrow-right"
    },
    {
      "icon": "../../assets/svg/font-awesome-sprites/solid.svg#building",
      "title": "Engineering",
      "svg-arrorow-right": "../../assets/svg/font-awesome-sprites/solid.svg#arrow-right"
    },
    {
      "icon": "../../assets/svg/font-awesome-sprites/solid.svg#folder-plus",
      "title": "Testing services",
      "svg-arrorow-right": "../../assets/svg/font-awesome-sprites/solid.svg#arrow-right"
    },
    {
      "icon": "../../assets/svg/font-awesome-sprites/solid.svg#chart-bar",
      "title": "IT infrastructure",
      "svg-arrorow-right": "../../assets/svg/font-awesome-sprites/solid.svg#arrow-right"
    },
    {
      "icon": "../../assets/svg/font-awesome-sprites/solid.svg#table",
      "title": "Enterprise applications",
      "svg-arrorow-right": "../../assets/svg/font-awesome-sprites/solid.svg#arrow-right"
    },
    {
      "icon": "../../assets/svg/font-awesome-sprites/solid.svg#briefcase",
      "title": "Trainings",
      "svg-arrorow-right": "../../assets/svg/font-awesome-sprites/solid.svg#arrow-right"
    },
    {
      "icon": "../../assets/svg/font-awesome-sprites/solid.svg#print",
      "title": "Service desk & user support",
      "svg-arrorow-right": "../../assets/svg/font-awesome-sprites/solid.svg#arrow-right"
    },
    {
      "icon": "../../assets/svg/font-awesome-sprites/solid.svg#business-time",
      "title": "Business intelligence",
      "svg-arrorow-right": "../../assets/svg/font-awesome-sprites/solid.svg#arrow-right"
    },
    {
      "icon": "../../assets/svg/font-awesome-sprites/solid.svg#arrows-alt",
      "title": "BPO",
      "svg-arrorow-right": "../../assets/svg/font-awesome-sprites/solid.svg#arrow-right"
    },
    {
      "icon": "../../assets/svg/font-awesome-sprites/solid.svg#user-tie",
      "title": "Business Consulting",
      "svg-arrorow-right": "../../assets/svg/font-awesome-sprites/solid.svg#arrow-right"
    },
    {
      "icon": "../../assets/svg/font-awesome-sprites/solid.svg#home",
      "title": "Remote work",
      "svg-arrorow-right": "../../assets/svg/font-awesome-sprites/solid.svg#arrow-right"
    }
  ]
}
