{

  "facebook": "../../assets/svg/font-awesome-sprites/brands.svg#facebook-square",
  "twitter": "../../assets/svg/font-awesome-sprites/brands.svg#twitter",
  "linkedin": "../../assets/svg/font-awesome-sprites/brands.svg#linkedin",
  "youtube": "../../assets/svg/font-awesome-sprites/brands.svg#youtube"

}
